#TAG,NAME IN REPO (or git url),PURPOSE (should be a verb phrase to sound right while installing)
,task-spooler,"Task spooler is a Unix batch system where the tasks spooled run one after the other"
P,yt-dlp,"can download any YouTube video (or playlist or channel) when given the link."
